{
  "images" : [
    {
      "idiom" : "universal",
      "scale" : "1x"
    },
    {
      "idiom" : "universal",
      "filename" : "形状-5@2x_92.png",
      "scale" : "2x"
    },
    {
      "idiom" : "universal",
      "filename" : "形状-5@3x_89.png",
      "scale" : "3x"
    }
  ],
  "info" : {
    "version" : 1,
    "author" : "xcode"
  }
}